{
    "page": 1,
    "per_page": 15,
    "photos": [
        {
            "id": 30241288,
            "width": 5860,
            "height": 8790,
            "url": "https://www.pexels.com/photo/elegant-parisian-architecture-in-early-light-30241288/",
            "photographer": "Mathias Reding",
            "photographer_url": "https://www.pexels.com/@matreding",
            "photographer_id": 2848684,
            "avg_color": "#8C8B89",
            "src": {
                "original": "https://images.pexels.com/photos/30241288/pexels-photo-30241288.jpeg",
                "large2x": "https://images.pexels.com/photos/30241288/pexels-photo-30241288.jpeg?auto=compress&cs=tinysrgb&dpr=2&h=650&w=940",
                "large": "https://images.pexels.com/photos/30241288/pexels-photo-30241288.jpeg?auto=compress&cs=tinysrgb&h=650&w=940",
                "medium": "https://images.pexels.com/photos/30241288/pexels-photo-30241288.jpeg?auto=compress&cs=tinysrgb&h=350",
                "small": "https://images.pexels.com/photos/30241288/pexels-photo-30241288.jpeg?auto=compress&cs=tinysrgb&h=130",
                "portrait": "https://images.pexels.com/photos/30241288/pexels-photo-30241288.jpeg?auto=compress&cs=tinysrgb&fit=crop&h=1200&w=800",
                "landscape": "https://images.pexels.com/photos/30241288/pexels-photo-30241288.jpeg?auto=compress&cs=tinysrgb&fit=crop&h=627&w=1200",
                "tiny": "https://images.pexels.com/photos/30241288/pexels-photo-30241288.jpeg?auto=compress&cs=tinysrgb&dpr=1&fit=crop&h=200&w=280"
            },
            "liked": false,
            "alt": "Classic Parisian apartment buildings with early morning light and clear sky."
        },
        {
            "id": 30236844,
            "width": 4284,
            "height": 5712,
            "url": "https://www.pexels.com/photo/cozy-white-bedding-in-minimalist-bedroom-30236844/",
            "photographer": "Aljona Ovtšinnikova",
            "photographer_url": "https://www.pexels.com/@aljona-ovtsinnikova-121486965",
            "photographer_id": 121486965,
            "avg_color": "#93928D",
            "src": {
                "original": "https://images.pexels.com/photos/30236844/pexels-photo-30236844.jpeg",
                "large2x": "https://images.pexels.com/photos/30236844/pexels-photo-30236844.jpeg?auto=compress&cs=tinysrgb&dpr=2&h=650&w=940",
                "large": "https://images.pexels.com/photos/30236844/pexels-photo-30236844.jpeg?auto=compress&cs=tinysrgb&h=650&w=940",
                "medium": "https://images.pexels.com/photos/30236844/pexels-photo-30236844.jpeg?auto=compress&cs=tinysrgb&h=350",
                "small": "https://images.pexels.com/photos/30236844/pexels-photo-30236844.jpeg?auto=compress&cs=tinysrgb&h=130",
                "portrait": "https://images.pexels.com/photos/30236844/pexels-photo-30236844.jpeg?auto=compress&cs=tinysrgb&fit=crop&h=1200&w=800",
                "landscape": "https://images.pexels.com/photos/30236844/pexels-photo-30236844.jpeg?auto=compress&cs=tinysrgb&fit=crop&h=627&w=1200",
                "tiny": "https://images.pexels.com/photos/30236844/pexels-photo-30236844.jpeg?auto=compress&cs=tinysrgb&dpr=1&fit=crop&h=200&w=280"
            },
            "liked": false,
            "alt": "A minimalistic bedroom scene featuring a cozy, rumpled white bedding setup."
        },
        {
            "id": 30229262,
            "width": 3888,
            "height": 5184,
            "url": "https://www.pexels.com/photo/bald-eagle-perched-on-leafless-tree-branch-30229262/",
            "photographer": "JJ Carter",
            "photographer_url": "https://www.pexels.com/@jj-carter-402482802",
            "photographer_id": 402482802,
            "avg_color": "#3D649F",
            "src": {
                "original": "https://images.pexels.com/photos/30229262/pexels-photo-30229262.jpeg",
                "large2x": "https://images.pexels.com/photos/30229262/pexels-photo-30229262.jpeg?auto=compress&cs=tinysrgb&dpr=2&h=650&w=940",
                "large": "https://images.pexels.com/photos/30229262/pexels-photo-30229262.jpeg?auto=compress&cs=tinysrgb&h=650&w=940",
                "medium": "https://images.pexels.com/photos/30229262/pexels-photo-30229262.jpeg?auto=compress&cs=tinysrgb&h=350",
                "small": "https://images.pexels.com/photos/30229262/pexels-photo-30229262.jpeg?auto=compress&cs=tinysrgb&h=130",
                "portrait": "https://images.pexels.com/photos/30229262/pexels-photo-30229262.jpeg?auto=compress&cs=tinysrgb&fit=crop&h=1200&w=800",
                "landscape": "https://images.pexels.com/photos/30229262/pexels-photo-30229262.jpeg?auto=compress&cs=tinysrgb&fit=crop&h=627&w=1200",
                "tiny": "https://images.pexels.com/photos/30229262/pexels-photo-30229262.jpeg?auto=compress&cs=tinysrgb&dpr=1&fit=crop&h=200&w=280"
            },
            "liked": false,
            "alt": ""
        },
        {
            "id": 30230100,
            "width": 3006,
            "height": 2000,
            "url": "https://www.pexels.com/photo/stunning-alpine-mountain-peak-with-clear-blue-sky-30230100/",
            "photographer": "征宇 郑",
            "photographer_url": "https://www.pexels.com/@202387659",
            "photographer_id": 202387659,
            "avg_color": "#1F5584",
            "src": {
                "original": "https://images.pexels.com/photos/30230100/pexels-photo-30230100.jpeg",
                "large2x": "https://images.pexels.com/photos/30230100/pexels-photo-30230100.jpeg?auto=compress&cs=tinysrgb&dpr=2&h=650&w=940",
                "large": "https://images.pexels.com/photos/30230100/pexels-photo-30230100.jpeg?auto=compress&cs=tinysrgb&h=650&w=940",
                "medium": "https://images.pexels.com/photos/30230100/pexels-photo-30230100.jpeg?auto=compress&cs=tinysrgb&h=350",
                "small": "https://images.pexels.com/photos/30230100/pexels-photo-30230100.jpeg?auto=compress&cs=tinysrgb&h=130",
                "portrait": "https://images.pexels.com/photos/30230100/pexels-photo-30230100.jpeg?auto=compress&cs=tinysrgb&fit=crop&h=1200&w=800",
                "landscape": "https://images.pexels.com/photos/30230100/pexels-photo-30230100.jpeg?auto=compress&cs=tinysrgb&fit=crop&h=627&w=1200",
                "tiny": "https://images.pexels.com/photos/30230100/pexels-photo-30230100.jpeg?auto=compress&cs=tinysrgb&dpr=1&fit=crop&h=200&w=280"
            },
            "liked": false,
            "alt": "Breathtaking view of a snow-capped alpine mountain under a clear blue sky, surrounded by evergreen forests."
        },
        {
            "id": 30229788,
            "width": 4000,
            "height": 6000,
            "url": "https://www.pexels.com/photo/stunning-starry-night-sky-with-shooting-star-30229788/",
            "photographer": "Alex Brites",
            "photographer_url": "https://www.pexels.com/@alexbph",
            "photographer_id": 962523,
            "avg_color": "#020D45",
            "src": {
                "original": "https://images.pexels.com/photos/30229788/pexels-photo-30229788.jpeg",
                "large2x": "https://images.pexels.com/photos/30229788/pexels-photo-30229788.jpeg?auto=compress&cs=tinysrgb&dpr=2&h=650&w=940",
                "large": "https://images.pexels.com/photos/30229788/pexels-photo-30229788.jpeg?auto=compress&cs=tinysrgb&h=650&w=940",
                "medium": "https://images.pexels.com/photos/30229788/pexels-photo-30229788.jpeg?auto=compress&cs=tinysrgb&h=350",
                "small": "https://images.pexels.com/photos/30229788/pexels-photo-30229788.jpeg?auto=compress&cs=tinysrgb&h=130",
                "portrait": "https://images.pexels.com/photos/30229788/pexels-photo-30229788.jpeg?auto=compress&cs=tinysrgb&fit=crop&h=1200&w=800",
                "landscape": "https://images.pexels.com/photos/30229788/pexels-photo-30229788.jpeg?auto=compress&cs=tinysrgb&fit=crop&h=627&w=1200",
                "tiny": "https://images.pexels.com/photos/30229788/pexels-photo-30229788.jpeg?auto=compress&cs=tinysrgb&dpr=1&fit=crop&h=200&w=280"
            },
            "liked": false,
            "alt": "pretend airplanes are shooting stars"
        },
        {
            "id": 30228641,
            "width": 4032,
            "height": 6048,
            "url": "https://www.pexels.com/photo/minimalist-winter-plant-with-snowy-background-30228641/",
            "photographer": "Chris F",
            "photographer_url": "https://www.pexels.com/@chris-f-38966",
            "photographer_id": 38966,
            "avg_color": "#AAAEAF",
            "src": {
                "original": "https://images.pexels.com/photos/30228641/pexels-photo-30228641.jpeg",
                "large2x": "https://images.pexels.com/photos/30228641/pexels-photo-30228641.jpeg?auto=compress&cs=tinysrgb&dpr=2&h=650&w=940",
                "large": "https://images.pexels.com/photos/30228641/pexels-photo-30228641.jpeg?auto=compress&cs=tinysrgb&h=650&w=940",
                "medium": "https://images.pexels.com/photos/30228641/pexels-photo-30228641.jpeg?auto=compress&cs=tinysrgb&h=350",
                "small": "https://images.pexels.com/photos/30228641/pexels-photo-30228641.jpeg?auto=compress&cs=tinysrgb&h=130",
                "portrait": "https://images.pexels.com/photos/30228641/pexels-photo-30228641.jpeg?auto=compress&cs=tinysrgb&fit=crop&h=1200&w=800",
                "landscape": "https://images.pexels.com/photos/30228641/pexels-photo-30228641.jpeg?auto=compress&cs=tinysrgb&fit=crop&h=627&w=1200",
                "tiny": "https://images.pexels.com/photos/30228641/pexels-photo-30228641.jpeg?auto=compress&cs=tinysrgb&dpr=1&fit=crop&h=200&w=280"
            },
            "liked": false,
            "alt": ""
        },
        {
            "id": 30227526,
            "width": 4000,
            "height": 6016,
            "url": "https://www.pexels.com/photo/minimalist-leafless-tree-against-urban-wall-30227526/",
            "photographer": "Susan  Flores",
            "photographer_url": "https://www.pexels.com/@susan-flores-232226967",
            "photographer_id": 232226967,
            "avg_color": "#C0C0C0",
            "src": {
                "original": "https://images.pexels.com/photos/30227526/pexels-photo-30227526.jpeg",
                "large2x": "https://images.pexels.com/photos/30227526/pexels-photo-30227526.jpeg?auto=compress&cs=tinysrgb&dpr=2&h=650&w=940",
                "large": "https://images.pexels.com/photos/30227526/pexels-photo-30227526.jpeg?auto=compress&cs=tinysrgb&h=650&w=940",
                "medium": "https://images.pexels.com/photos/30227526/pexels-photo-30227526.jpeg?auto=compress&cs=tinysrgb&h=350",
                "small": "https://images.pexels.com/photos/30227526/pexels-photo-30227526.jpeg?auto=compress&cs=tinysrgb&h=130",
                "portrait": "https://images.pexels.com/photos/30227526/pexels-photo-30227526.jpeg?auto=compress&cs=tinysrgb&fit=crop&h=1200&w=800",
                "landscape": "https://images.pexels.com/photos/30227526/pexels-photo-30227526.jpeg?auto=compress&cs=tinysrgb&fit=crop&h=627&w=1200",
                "tiny": "https://images.pexels.com/photos/30227526/pexels-photo-30227526.jpeg?auto=compress&cs=tinysrgb&dpr=1&fit=crop&h=200&w=280"
            },
            "liked": false,
            "alt": "Leafless tree in urban setting with stark white contrast, Ciudad de México."
        },
        {
            "id": 30227764,
            "width": 3840,
            "height": 5760,
            "url": "https://www.pexels.com/photo/traditional-european-half-timbered-houses-scene-30227764/",
            "photographer": "drB drB",
            "photographer_url": "https://www.pexels.com/@drbdrb",
            "photographer_id": 2133387946,
            "avg_color": "#807C73",
            "src": {
                "original": "https://images.pexels.com/photos/30227764/pexels-photo-30227764.jpeg",
                "large2x": "https://images.pexels.com/photos/30227764/pexels-photo-30227764.jpeg?auto=compress&cs=tinysrgb&dpr=2&h=650&w=940",
                "large": "https://images.pexels.com/photos/30227764/pexels-photo-30227764.jpeg?auto=compress&cs=tinysrgb&h=650&w=940",
                "medium": "https://images.pexels.com/photos/30227764/pexels-photo-30227764.jpeg?auto=compress&cs=tinysrgb&h=350",
                "small": "https://images.pexels.com/photos/30227764/pexels-photo-30227764.jpeg?auto=compress&cs=tinysrgb&h=130",
                "portrait": "https://images.pexels.com/photos/30227764/pexels-photo-30227764.jpeg?auto=compress&cs=tinysrgb&fit=crop&h=1200&w=800",
                "landscape": "https://images.pexels.com/photos/30227764/pexels-photo-30227764.jpeg?auto=compress&cs=tinysrgb&fit=crop&h=627&w=1200",
                "tiny": "https://images.pexels.com/photos/30227764/pexels-photo-30227764.jpeg?auto=compress&cs=tinysrgb&dpr=1&fit=crop&h=200&w=280"
            },
            "liked": false,
            "alt": ""
        },
        {
            "id": 30225008,
            "width": 4784,
            "height": 7168,
            "url": "https://www.pexels.com/photo/dramatic-silhouette-of-leafless-tree-against-blue-sky-30225008/",
            "photographer": "Victor  Moragriega",
            "photographer_url": "https://www.pexels.com/@victormoragriega",
            "photographer_id": 1390556186,
            "avg_color": "#1B4381",
            "src": {
                "original": "https://images.pexels.com/photos/30225008/pexels-photo-30225008.jpeg",
                "large2x": "https://images.pexels.com/photos/30225008/pexels-photo-30225008.jpeg?auto=compress&cs=tinysrgb&dpr=2&h=650&w=940",
                "large": "https://images.pexels.com/photos/30225008/pexels-photo-30225008.jpeg?auto=compress&cs=tinysrgb&h=650&w=940",
                "medium": "https://images.pexels.com/photos/30225008/pexels-photo-30225008.jpeg?auto=compress&cs=tinysrgb&h=350",
                "small": "https://images.pexels.com/photos/30225008/pexels-photo-30225008.jpeg?auto=compress&cs=tinysrgb&h=130",
                "portrait": "https://images.pexels.com/photos/30225008/pexels-photo-30225008.jpeg?auto=compress&cs=tinysrgb&fit=crop&h=1200&w=800",
                "landscape": "https://images.pexels.com/photos/30225008/pexels-photo-30225008.jpeg?auto=compress&cs=tinysrgb&fit=crop&h=627&w=1200",
                "tiny": "https://images.pexels.com/photos/30225008/pexels-photo-30225008.jpeg?auto=compress&cs=tinysrgb&dpr=1&fit=crop&h=200&w=280"
            },
            "liked": false,
            "alt": ""
        },
        {
            "id": 30221505,
            "width": 3405,
            "height": 4972,
            "url": "https://www.pexels.com/photo/cozy-bedroom-with-ocean-view-balcony-at-sunset-30221505/",
            "photographer": "Ricardo Oliveira",
            "photographer_url": "https://www.pexels.com/@ricardo-oliveira-317251078",
            "photographer_id": 317251078,
            "avg_color": "#3C3226",
            "src": {
                "original": "https://images.pexels.com/photos/30221505/pexels-photo-30221505.jpeg",
                "large2x": "https://images.pexels.com/photos/30221505/pexels-photo-30221505.jpeg?auto=compress&cs=tinysrgb&dpr=2&h=650&w=940",
                "large": "https://images.pexels.com/photos/30221505/pexels-photo-30221505.jpeg?auto=compress&cs=tinysrgb&h=650&w=940",
                "medium": "https://images.pexels.com/photos/30221505/pexels-photo-30221505.jpeg?auto=compress&cs=tinysrgb&h=350",
                "small": "https://images.pexels.com/photos/30221505/pexels-photo-30221505.jpeg?auto=compress&cs=tinysrgb&h=130",
                "portrait": "https://images.pexels.com/photos/30221505/pexels-photo-30221505.jpeg?auto=compress&cs=tinysrgb&fit=crop&h=1200&w=800",
                "landscape": "https://images.pexels.com/photos/30221505/pexels-photo-30221505.jpeg?auto=compress&cs=tinysrgb&fit=crop&h=627&w=1200",
                "tiny": "https://images.pexels.com/photos/30221505/pexels-photo-30221505.jpeg?auto=compress&cs=tinysrgb&dpr=1&fit=crop&h=200&w=280"
            },
            "liked": false,
            "alt": "Serene bedroom with open balcony doors overlooking the ocean at sunset for relaxation."
        },
        {
            "id": 30219924,
            "width": 4160,
            "height": 6240,
            "url": "https://www.pexels.com/photo/lush-green-bamboo-leaves-in-natural-light-30219924/",
            "photographer": "Guruh Budi",
            "photographer_url": "https://www.pexels.com/@guruh-budi-430167744",
            "photographer_id": 430167744,
            "avg_color": "#617C53",
            "src": {
                "original": "https://images.pexels.com/photos/30219924/pexels-photo-30219924.jpeg",
                "large2x": "https://images.pexels.com/photos/30219924/pexels-photo-30219924.jpeg?auto=compress&cs=tinysrgb&dpr=2&h=650&w=940",
                "large": "https://images.pexels.com/photos/30219924/pexels-photo-30219924.jpeg?auto=compress&cs=tinysrgb&h=650&w=940",
                "medium": "https://images.pexels.com/photos/30219924/pexels-photo-30219924.jpeg?auto=compress&cs=tinysrgb&h=350",
                "small": "https://images.pexels.com/photos/30219924/pexels-photo-30219924.jpeg?auto=compress&cs=tinysrgb&h=130",
                "portrait": "https://images.pexels.com/photos/30219924/pexels-photo-30219924.jpeg?auto=compress&cs=tinysrgb&fit=crop&h=1200&w=800",
                "landscape": "https://images.pexels.com/photos/30219924/pexels-photo-30219924.jpeg?auto=compress&cs=tinysrgb&fit=crop&h=627&w=1200",
                "tiny": "https://images.pexels.com/photos/30219924/pexels-photo-30219924.jpeg?auto=compress&cs=tinysrgb&dpr=1&fit=crop&h=200&w=280"
            },
            "liked": false,
            "alt": ""
        },
        {
            "id": 30216603,
            "width": 3264,
            "height": 4896,
            "url": "https://www.pexels.com/photo/dense-birch-forest-in-autumn-with-underbrush-30216603/",
            "photographer": "Roman Biernacki",
            "photographer_url": "https://www.pexels.com/@szafran",
            "photographer_id": 471602692,
            "avg_color": "#666C6C",
            "src": {
                "original": "https://images.pexels.com/photos/30216603/pexels-photo-30216603.jpeg",
                "large2x": "https://images.pexels.com/photos/30216603/pexels-photo-30216603.jpeg?auto=compress&cs=tinysrgb&dpr=2&h=650&w=940",
                "large": "https://images.pexels.com/photos/30216603/pexels-photo-30216603.jpeg?auto=compress&cs=tinysrgb&h=650&w=940",
                "medium": "https://images.pexels.com/photos/30216603/pexels-photo-30216603.jpeg?auto=compress&cs=tinysrgb&h=350",
                "small": "https://images.pexels.com/photos/30216603/pexels-photo-30216603.jpeg?auto=compress&cs=tinysrgb&h=130",
                "portrait": "https://images.pexels.com/photos/30216603/pexels-photo-30216603.jpeg?auto=compress&cs=tinysrgb&fit=crop&h=1200&w=800",
                "landscape": "https://images.pexels.com/photos/30216603/pexels-photo-30216603.jpeg?auto=compress&cs=tinysrgb&fit=crop&h=627&w=1200",
                "tiny": "https://images.pexels.com/photos/30216603/pexels-photo-30216603.jpeg?auto=compress&cs=tinysrgb&dpr=1&fit=crop&h=200&w=280"
            },
            "liked": false,
            "alt": ""
        },
        {
            "id": 30214690,
            "width": 6240,
            "height": 4160,
            "url": "https://www.pexels.com/photo/solitary-figure-by-majestic-sea-cliff-in-black-and-white-30214690/",
            "photographer": "David Kouakou",
            "photographer_url": "https://www.pexels.com/@david-kouakou-536418893",
            "photographer_id": 536418893,
            "avg_color": "#8F8F8F",
            "src": {
                "original": "https://images.pexels.com/photos/30214690/pexels-photo-30214690.jpeg",
                "large2x": "https://images.pexels.com/photos/30214690/pexels-photo-30214690.jpeg?auto=compress&cs=tinysrgb&dpr=2&h=650&w=940",
                "large": "https://images.pexels.com/photos/30214690/pexels-photo-30214690.jpeg?auto=compress&cs=tinysrgb&h=650&w=940",
                "medium": "https://images.pexels.com/photos/30214690/pexels-photo-30214690.jpeg?auto=compress&cs=tinysrgb&h=350",
                "small": "https://images.pexels.com/photos/30214690/pexels-photo-30214690.jpeg?auto=compress&cs=tinysrgb&h=130",
                "portrait": "https://images.pexels.com/photos/30214690/pexels-photo-30214690.jpeg?auto=compress&cs=tinysrgb&fit=crop&h=1200&w=800",
                "landscape": "https://images.pexels.com/photos/30214690/pexels-photo-30214690.jpeg?auto=compress&cs=tinysrgb&fit=crop&h=627&w=1200",
                "tiny": "https://images.pexels.com/photos/30214690/pexels-photo-30214690.jpeg?auto=compress&cs=tinysrgb&dpr=1&fit=crop&h=200&w=280"
            },
            "liked": false,
            "alt": ""
        },
        {
            "id": 30210931,
            "width": 4024,
            "height": 6048,
            "url": "https://www.pexels.com/photo/elegant-white-building-against-blue-sky-30210931/",
            "photographer": "Diana ✨",
            "photographer_url": "https://www.pexels.com/@didsss",
            "photographer_id": 447505,
            "avg_color": "#778A91",
            "src": {
                "original": "https://images.pexels.com/photos/30210931/pexels-photo-30210931.jpeg",
                "large2x": "https://images.pexels.com/photos/30210931/pexels-photo-30210931.jpeg?auto=compress&cs=tinysrgb&dpr=2&h=650&w=940",
                "large": "https://images.pexels.com/photos/30210931/pexels-photo-30210931.jpeg?auto=compress&cs=tinysrgb&h=650&w=940",
                "medium": "https://images.pexels.com/photos/30210931/pexels-photo-30210931.jpeg?auto=compress&cs=tinysrgb&h=350",
                "small": "https://images.pexels.com/photos/30210931/pexels-photo-30210931.jpeg?auto=compress&cs=tinysrgb&h=130",
                "portrait": "https://images.pexels.com/photos/30210931/pexels-photo-30210931.jpeg?auto=compress&cs=tinysrgb&fit=crop&h=1200&w=800",
                "landscape": "https://images.pexels.com/photos/30210931/pexels-photo-30210931.jpeg?auto=compress&cs=tinysrgb&fit=crop&h=627&w=1200",
                "tiny": "https://images.pexels.com/photos/30210931/pexels-photo-30210931.jpeg?auto=compress&cs=tinysrgb&dpr=1&fit=crop&h=200&w=280"
            },
            "liked": false,
            "alt": ""
        },
        {
            "id": 30210046,
            "width": 2238,
            "height": 2984,
            "url": "https://www.pexels.com/photo/empire-state-building-in-black-and-white-30210046/",
            "photographer": "Ben Prater",
            "photographer_url": "https://www.pexels.com/@benprater",
            "photographer_id": 949287995,
            "avg_color": "#8F8F8F",
            "src": {
                "original": "https://images.pexels.com/photos/30210046/pexels-photo-30210046.jpeg",
                "large2x": "https://images.pexels.com/photos/30210046/pexels-photo-30210046.jpeg?auto=compress&cs=tinysrgb&dpr=2&h=650&w=940",
                "large": "https://images.pexels.com/photos/30210046/pexels-photo-30210046.jpeg?auto=compress&cs=tinysrgb&h=650&w=940",
                "medium": "https://images.pexels.com/photos/30210046/pexels-photo-30210046.jpeg?auto=compress&cs=tinysrgb&h=350",
                "small": "https://images.pexels.com/photos/30210046/pexels-photo-30210046.jpeg?auto=compress&cs=tinysrgb&h=130",
                "portrait": "https://images.pexels.com/photos/30210046/pexels-photo-30210046.jpeg?auto=compress&cs=tinysrgb&fit=crop&h=1200&w=800",
                "landscape": "https://images.pexels.com/photos/30210046/pexels-photo-30210046.jpeg?auto=compress&cs=tinysrgb&fit=crop&h=627&w=1200",
                "tiny": "https://images.pexels.com/photos/30210046/pexels-photo-30210046.jpeg?auto=compress&cs=tinysrgb&dpr=1&fit=crop&h=200&w=280"
            },
            "liked": false,
            "alt": "empire  state building touching the clouds"
        }
    ],
    "total_results": 8000,
    "next_page": "https://api.pexels.com/v1/curated/?page=2&per_page=15"
}
