{
  "page": 1,
  "per_page": 15,
  "photos": [
    {
      "id": 1483053,
      "width": 4544,
      "height": 2744,
      "url": "https://www.pexels.com/photo/aerial-photography-of-sand-bars-1483053/",
      "photographer": "Asad Photo Maldives",
      "photographer_url": "https://www.pexels.com/@asadphoto",
      "photographer_id": 45786,
      "avg_color": "#5F97B4",
      "src": {
        "original": "https://images.pexels.com/photos/1483053/pexels-photo-1483053.jpeg",
        "large2x": "https://images.pexels.com/photos/1483053/pexels-photo-1483053.jpeg?auto=compress&cs=tinysrgb&dpr=2&h=650&w=940",
        "large": "https://images.pexels.com/photos/1483053/pexels-photo-1483053.jpeg?auto=compress&cs=tinysrgb&h=650&w=940",
        "medium": "https://images.pexels.com/photos/1483053/pexels-photo-1483053.jpeg?auto=compress&cs=tinysrgb&h=350",
        "small": "https://images.pexels.com/photos/1483053/pexels-photo-1483053.jpeg?auto=compress&cs=tinysrgb&h=130",
        "portrait": "https://images.pexels.com/photos/1483053/pexels-photo-1483053.jpeg?auto=compress&cs=tinysrgb&fit=crop&h=1200&w=800",
        "landscape": "https://images.pexels.com/photos/1483053/pexels-photo-1483053.jpeg?auto=compress&cs=tinysrgb&fit=crop&h=627&w=1200",
        "tiny": "https://images.pexels.com/photos/1483053/pexels-photo-1483053.jpeg?auto=compress&cs=tinysrgb&dpr=1&fit=crop&h=200&w=280"
      },
      "liked": false,
      "alt": "Breathtaking aerial view of Maldives island resorts with azure waters and lush greenery."
    },
    {
      "id": 1320684,
      "width": 4000,
      "height": 3000,
      "url": "https://www.pexels.com/photo/two-person-riding-kayak-1320684/",
      "photographer": "Asad Photo Maldives",
      "photographer_url": "https://www.pexels.com/@asadphoto",
      "photographer_id": 45786,
      "avg_color": "#378983",
      "src": {
        "original": "https://images.pexels.com/photos/1320684/pexels-photo-1320684.jpeg",
        "large2x": "https://images.pexels.com/photos/1320684/pexels-photo-1320684.jpeg?auto=compress&cs=tinysrgb&dpr=2&h=650&w=940",
        "large": "https://images.pexels.com/photos/1320684/pexels-photo-1320684.jpeg?auto=compress&cs=tinysrgb&h=650&w=940",
        "medium": "https://images.pexels.com/photos/1320684/pexels-photo-1320684.jpeg?auto=compress&cs=tinysrgb&h=350",
        "small": "https://images.pexels.com/photos/1320684/pexels-photo-1320684.jpeg?auto=compress&cs=tinysrgb&h=130",
        "portrait": "https://images.pexels.com/photos/1320684/pexels-photo-1320684.jpeg?auto=compress&cs=tinysrgb&fit=crop&h=1200&w=800",
        "landscape": "https://images.pexels.com/photos/1320684/pexels-photo-1320684.jpeg?auto=compress&cs=tinysrgb&fit=crop&h=627&w=1200",
        "tiny": "https://images.pexels.com/photos/1320684/pexels-photo-1320684.jpeg?auto=compress&cs=tinysrgb&dpr=1&fit=crop&h=200&w=280"
      },
      "liked": false,
      "alt": "Aerial view of clear canoe gliding over vibrant coral reefs in the Maldives' turquoise waters."
    },
    {
      "id": 1287460,
      "width": 4856,
      "height": 3035,
      "url": "https://www.pexels.com/photo/aerial-photography-of-bungalows-1287460/",
      "photographer": "Asad Photo Maldives",
      "photographer_url": "https://www.pexels.com/@asadphoto",
      "photographer_id": 45786,
      "avg_color": "#7CA0A4",
      "src": {
        "original": "https://images.pexels.com/photos/1287460/pexels-photo-1287460.jpeg",
        "large2x": "https://images.pexels.com/photos/1287460/pexels-photo-1287460.jpeg?auto=compress&cs=tinysrgb&dpr=2&h=650&w=940",
        "large": "https://images.pexels.com/photos/1287460/pexels-photo-1287460.jpeg?auto=compress&cs=tinysrgb&h=650&w=940",
        "medium": "https://images.pexels.com/photos/1287460/pexels-photo-1287460.jpeg?auto=compress&cs=tinysrgb&h=350",
        "small": "https://images.pexels.com/photos/1287460/pexels-photo-1287460.jpeg?auto=compress&cs=tinysrgb&h=130",
        "portrait": "https://images.pexels.com/photos/1287460/pexels-photo-1287460.jpeg?auto=compress&cs=tinysrgb&fit=crop&h=1200&w=800",
        "landscape": "https://images.pexels.com/photos/1287460/pexels-photo-1287460.jpeg?auto=compress&cs=tinysrgb&fit=crop&h=627&w=1200",
        "tiny": "https://images.pexels.com/photos/1287460/pexels-photo-1287460.jpeg?auto=compress&cs=tinysrgb&dpr=1&fit=crop&h=200&w=280"
      },
      "liked": false,
      "alt": "Stunning aerial view of overwater bungalows in Fuvahmulah, Maldives, with crystal clear waters."
    },
    {
      "id": 1430677,
      "width": 5132,
      "height": 3467,
      "url": "https://www.pexels.com/photo/photo-of-blue-sea-1430677/",
      "photographer": "Asad Photo Maldives",
      "photographer_url": "https://www.pexels.com/@asadphoto",
      "photographer_id": 45786,
      "avg_color": "#589BB3",
      "src": {
        "original": "https://images.pexels.com/photos/1430677/pexels-photo-1430677.jpeg",
        "large2x": "https://images.pexels.com/photos/1430677/pexels-photo-1430677.jpeg?auto=compress&cs=tinysrgb&dpr=2&h=650&w=940",
        "large": "https://images.pexels.com/photos/1430677/pexels-photo-1430677.jpeg?auto=compress&cs=tinysrgb&h=650&w=940",
        "medium": "https://images.pexels.com/photos/1430677/pexels-photo-1430677.jpeg?auto=compress&cs=tinysrgb&h=350",
        "small": "https://images.pexels.com/photos/1430677/pexels-photo-1430677.jpeg?auto=compress&cs=tinysrgb&h=130",
        "portrait": "https://images.pexels.com/photos/1430677/pexels-photo-1430677.jpeg?auto=compress&cs=tinysrgb&fit=crop&h=1200&w=800",
        "landscape": "https://images.pexels.com/photos/1430677/pexels-photo-1430677.jpeg?auto=compress&cs=tinysrgb&fit=crop&h=627&w=1200",
        "tiny": "https://images.pexels.com/photos/1430677/pexels-photo-1430677.jpeg?auto=compress&cs=tinysrgb&dpr=1&fit=crop&h=200&w=280"
      },
      "liked": false,
      "alt": "Stunning tropical beach scene in the Maldives with clear waters and blue sky, perfect for a paradise getaway."
    },
    {
      "id": 1450363,
      "width": 6588,
      "height": 4397,
      "url": "https://www.pexels.com/photo/house-on-body-of-water-1450363/",
      "photographer": "Asad Photo Maldives",
      "photographer_url": "https://www.pexels.com/@asadphoto",
      "photographer_id": 45786,
      "avg_color": "#56568E",
      "src": {
        "original": "https://images.pexels.com/photos/1450363/pexels-photo-1450363.jpeg",
        "large2x": "https://images.pexels.com/photos/1450363/pexels-photo-1450363.jpeg?auto=compress&cs=tinysrgb&dpr=2&h=650&w=940",
        "large": "https://images.pexels.com/photos/1450363/pexels-photo-1450363.jpeg?auto=compress&cs=tinysrgb&h=650&w=940",
        "medium": "https://images.pexels.com/photos/1450363/pexels-photo-1450363.jpeg?auto=compress&cs=tinysrgb&h=350",
        "small": "https://images.pexels.com/photos/1450363/pexels-photo-1450363.jpeg?auto=compress&cs=tinysrgb&h=130",
        "portrait": "https://images.pexels.com/photos/1450363/pexels-photo-1450363.jpeg?auto=compress&cs=tinysrgb&fit=crop&h=1200&w=800",
        "landscape": "https://images.pexels.com/photos/1450363/pexels-photo-1450363.jpeg?auto=compress&cs=tinysrgb&fit=crop&h=627&w=1200",
        "tiny": "https://images.pexels.com/photos/1450363/pexels-photo-1450363.jpeg?auto=compress&cs=tinysrgb&dpr=1&fit=crop&h=200&w=280"
      },
      "liked": false,
      "alt": "Beautiful round pavilion on a pier overlooking the tranquil sea at sunset."
    },
    {
      "id": 1320686,
      "width": 7360,
      "height": 4912,
      "url": "https://www.pexels.com/photo/landscape-photography-of-beach-resort-1320686/",
      "photographer": "Asad Photo Maldives",
      "photographer_url": "https://www.pexels.com/@asadphoto",
      "photographer_id": 45786,
      "avg_color": "#75A0B1",
      "src": {
        "original": "https://images.pexels.com/photos/1320686/pexels-photo-1320686.jpeg",
        "large2x": "https://images.pexels.com/photos/1320686/pexels-photo-1320686.jpeg?auto=compress&cs=tinysrgb&dpr=2&h=650&w=940",
        "large": "https://images.pexels.com/photos/1320686/pexels-photo-1320686.jpeg?auto=compress&cs=tinysrgb&h=650&w=940",
        "medium": "https://images.pexels.com/photos/1320686/pexels-photo-1320686.jpeg?auto=compress&cs=tinysrgb&h=350",
        "small": "https://images.pexels.com/photos/1320686/pexels-photo-1320686.jpeg?auto=compress&cs=tinysrgb&h=130",
        "portrait": "https://images.pexels.com/photos/1320686/pexels-photo-1320686.jpeg?auto=compress&cs=tinysrgb&fit=crop&h=1200&w=800",
        "landscape": "https://images.pexels.com/photos/1320686/pexels-photo-1320686.jpeg?auto=compress&cs=tinysrgb&fit=crop&h=627&w=1200",
        "tiny": "https://images.pexels.com/photos/1320686/pexels-photo-1320686.jpeg?auto=compress&cs=tinysrgb&dpr=1&fit=crop&h=200&w=280"
      },
      "liked": false,
      "alt": "Explore tropical paradise with stunning overwater bungalows and crystal-clear waters in the Maldives."
    },
    {
      "id": 1287452,
      "width": 4856,
      "height": 2251,
      "url": "https://www.pexels.com/photo/assorted-beach-hutts-1287452/",
      "photographer": "Asad Photo Maldives",
      "photographer_url": "https://www.pexels.com/@asadphoto",
      "photographer_id": 45786,
      "avg_color": "#79A3BF",
      "src": {
        "original": "https://images.pexels.com/photos/1287452/pexels-photo-1287452.jpeg",
        "large2x": "https://images.pexels.com/photos/1287452/pexels-photo-1287452.jpeg?auto=compress&cs=tinysrgb&dpr=2&h=650&w=940",
        "large": "https://images.pexels.com/photos/1287452/pexels-photo-1287452.jpeg?auto=compress&cs=tinysrgb&h=650&w=940",
        "medium": "https://images.pexels.com/photos/1287452/pexels-photo-1287452.jpeg?auto=compress&cs=tinysrgb&h=350",
        "small": "https://images.pexels.com/photos/1287452/pexels-photo-1287452.jpeg?auto=compress&cs=tinysrgb&h=130",
        "portrait": "https://images.pexels.com/photos/1287452/pexels-photo-1287452.jpeg?auto=compress&cs=tinysrgb&fit=crop&h=1200&w=800",
        "landscape": "https://images.pexels.com/photos/1287452/pexels-photo-1287452.jpeg?auto=compress&cs=tinysrgb&fit=crop&h=627&w=1200",
        "tiny": "https://images.pexels.com/photos/1287452/pexels-photo-1287452.jpeg?auto=compress&cs=tinysrgb&dpr=1&fit=crop&h=200&w=280"
      },
      "liked": false,
      "alt": "Stunning aerial view of tropical water villas and beaches in the Maldives, showcasing turquoise waters and lush islands."
    },
    {
      "id": 3601426,
      "width": 3340,
      "height": 2227,
      "url": "https://www.pexels.com/photo/brown-and-white-wooden-houses-on-body-of-water-during-sunset-3601426/",
      "photographer": "Asad Photo Maldives",
      "photographer_url": "https://www.pexels.com/@asadphoto",
      "photographer_id": 45786,
      "avg_color": "#999C8C",
      "src": {
        "original": "https://images.pexels.com/photos/3601426/pexels-photo-3601426.jpeg",
        "large2x": "https://images.pexels.com/photos/3601426/pexels-photo-3601426.jpeg?auto=compress&cs=tinysrgb&dpr=2&h=650&w=940",
        "large": "https://images.pexels.com/photos/3601426/pexels-photo-3601426.jpeg?auto=compress&cs=tinysrgb&h=650&w=940",
        "medium": "https://images.pexels.com/photos/3601426/pexels-photo-3601426.jpeg?auto=compress&cs=tinysrgb&h=350",
        "small": "https://images.pexels.com/photos/3601426/pexels-photo-3601426.jpeg?auto=compress&cs=tinysrgb&h=130",
        "portrait": "https://images.pexels.com/photos/3601426/pexels-photo-3601426.jpeg?auto=compress&cs=tinysrgb&fit=crop&h=1200&w=800",
        "landscape": "https://images.pexels.com/photos/3601426/pexels-photo-3601426.jpeg?auto=compress&cs=tinysrgb&fit=crop&h=627&w=1200",
        "tiny": "https://images.pexels.com/photos/3601426/pexels-photo-3601426.jpeg?auto=compress&cs=tinysrgb&dpr=1&fit=crop&h=200&w=280"
      },
      "liked": false,
      "alt": "Discover the serenity of overwater bungalows at sunrise, offering a luxurious tropical escape."
    },
    {
      "id": 1450353,
      "width": 4180,
      "height": 2776,
      "url": "https://www.pexels.com/photo/parked-boat-1450353/",
      "photographer": "Asad Photo Maldives",
      "photographer_url": "https://www.pexels.com/@asadphoto",
      "photographer_id": 45786,
      "avg_color": "#A0B2B2",
      "src": {
        "original": "https://images.pexels.com/photos/1450353/pexels-photo-1450353.jpeg",
        "large2x": "https://images.pexels.com/photos/1450353/pexels-photo-1450353.jpeg?auto=compress&cs=tinysrgb&dpr=2&h=650&w=940",
        "large": "https://images.pexels.com/photos/1450353/pexels-photo-1450353.jpeg?auto=compress&cs=tinysrgb&h=650&w=940",
        "medium": "https://images.pexels.com/photos/1450353/pexels-photo-1450353.jpeg?auto=compress&cs=tinysrgb&h=350",
        "small": "https://images.pexels.com/photos/1450353/pexels-photo-1450353.jpeg?auto=compress&cs=tinysrgb&h=130",
        "portrait": "https://images.pexels.com/photos/1450353/pexels-photo-1450353.jpeg?auto=compress&cs=tinysrgb&fit=crop&h=1200&w=800",
        "landscape": "https://images.pexels.com/photos/1450353/pexels-photo-1450353.jpeg?auto=compress&cs=tinysrgb&fit=crop&h=627&w=1200",
        "tiny": "https://images.pexels.com/photos/1450353/pexels-photo-1450353.jpeg?auto=compress&cs=tinysrgb&dpr=1&fit=crop&h=200&w=280"
      },
      "liked": false,
      "alt": "Serene beach with turquoise waters, white sand, and palm trees under a sunny sky, perfect for relaxation."
    },
    {
      "id": 1450372,
      "width": 7098,
      "height": 4737,
      "url": "https://www.pexels.com/photo/red-hammock-tied-between-two-trees-1450372/",
      "photographer": "Asad Photo Maldives",
      "photographer_url": "https://www.pexels.com/@asadphoto",
      "photographer_id": 45786,
      "avg_color": "#9A9CB9",
      "src": {
        "original": "https://images.pexels.com/photos/1450372/pexels-photo-1450372.jpeg",
        "large2x": "https://images.pexels.com/photos/1450372/pexels-photo-1450372.jpeg?auto=compress&cs=tinysrgb&dpr=2&h=650&w=940",
        "large": "https://images.pexels.com/photos/1450372/pexels-photo-1450372.jpeg?auto=compress&cs=tinysrgb&h=650&w=940",
        "medium": "https://images.pexels.com/photos/1450372/pexels-photo-1450372.jpeg?auto=compress&cs=tinysrgb&h=350",
        "small": "https://images.pexels.com/photos/1450372/pexels-photo-1450372.jpeg?auto=compress&cs=tinysrgb&h=130",
        "portrait": "https://images.pexels.com/photos/1450372/pexels-photo-1450372.jpeg?auto=compress&cs=tinysrgb&fit=crop&h=1200&w=800",
        "landscape": "https://images.pexels.com/photos/1450372/pexels-photo-1450372.jpeg?auto=compress&cs=tinysrgb&fit=crop&h=627&w=1200",
        "tiny": "https://images.pexels.com/photos/1450372/pexels-photo-1450372.jpeg?auto=compress&cs=tinysrgb&dpr=1&fit=crop&h=200&w=280"
      },
      "liked": false,
      "alt": "Idyllic beach hammock between coconut trees with azure blue waters."
    },
    {
      "id": 1268860,
      "width": 2800,
      "height": 1869,
      "url": "https://www.pexels.com/photo/aerial-photography-of-body-of-water-1268860/",
      "photographer": "Asad Photo Maldives",
      "photographer_url": "https://www.pexels.com/@asadphoto",
      "photographer_id": 45786,
      "avg_color": "#3B95C6",
      "src": {
        "original": "https://images.pexels.com/photos/1268860/pexels-photo-1268860.jpeg",
        "large2x": "https://images.pexels.com/photos/1268860/pexels-photo-1268860.jpeg?auto=compress&cs=tinysrgb&dpr=2&h=650&w=940",
        "large": "https://images.pexels.com/photos/1268860/pexels-photo-1268860.jpeg?auto=compress&cs=tinysrgb&h=650&w=940",
        "medium": "https://images.pexels.com/photos/1268860/pexels-photo-1268860.jpeg?auto=compress&cs=tinysrgb&h=350",
        "small": "https://images.pexels.com/photos/1268860/pexels-photo-1268860.jpeg?auto=compress&cs=tinysrgb&h=130",
        "portrait": "https://images.pexels.com/photos/1268860/pexels-photo-1268860.jpeg?auto=compress&cs=tinysrgb&fit=crop&h=1200&w=800",
        "landscape": "https://images.pexels.com/photos/1268860/pexels-photo-1268860.jpeg?auto=compress&cs=tinysrgb&fit=crop&h=627&w=1200",
        "tiny": "https://images.pexels.com/photos/1268860/pexels-photo-1268860.jpeg?auto=compress&cs=tinysrgb&dpr=1&fit=crop&h=200&w=280"
      },
      "liked": false,
      "alt": "A stunning aerial view captures a lush island surrounded by turquoise waters in the Maldives."
    },
    {
      "id": 2531237,
      "width": 3648,
      "height": 5472,
      "url": "https://www.pexels.com/photo/silhouette-photo-of-person-sitting-on-boardwalk-at-sunset-2531237/",
      "photographer": "Roberto Nickson",
      "photographer_url": "https://www.pexels.com/@rpnickson",
      "photographer_id": 1268114,
      "avg_color": "#4E4954",
      "src": {
        "original": "https://images.pexels.com/photos/2531237/pexels-photo-2531237.jpeg",
        "large2x": "https://images.pexels.com/photos/2531237/pexels-photo-2531237.jpeg?auto=compress&cs=tinysrgb&dpr=2&h=650&w=940",
        "large": "https://images.pexels.com/photos/2531237/pexels-photo-2531237.jpeg?auto=compress&cs=tinysrgb&h=650&w=940",
        "medium": "https://images.pexels.com/photos/2531237/pexels-photo-2531237.jpeg?auto=compress&cs=tinysrgb&h=350",
        "small": "https://images.pexels.com/photos/2531237/pexels-photo-2531237.jpeg?auto=compress&cs=tinysrgb&h=130",
        "portrait": "https://images.pexels.com/photos/2531237/pexels-photo-2531237.jpeg?auto=compress&cs=tinysrgb&fit=crop&h=1200&w=800",
        "landscape": "https://images.pexels.com/photos/2531237/pexels-photo-2531237.jpeg?auto=compress&cs=tinysrgb&fit=crop&h=627&w=1200",
        "tiny": "https://images.pexels.com/photos/2531237/pexels-photo-2531237.jpeg?auto=compress&cs=tinysrgb&dpr=1&fit=crop&h=200&w=280"
      },
      "liked": false,
      "alt": "Tranquil scene of a person relaxing on a Maldives jetty at twilight under a starry sky."
    },
    {
      "id": 1268855,
      "width": 4043,
      "height": 2690,
      "url": "https://www.pexels.com/photo/man-and-woman-walks-on-dock-1268855/",
      "photographer": "Asad Photo Maldives",
      "photographer_url": "https://www.pexels.com/@asadphoto",
      "photographer_id": 45786,
      "avg_color": "#72B8D1",
      "src": {
        "original": "https://images.pexels.com/photos/1268855/pexels-photo-1268855.jpeg",
        "large2x": "https://images.pexels.com/photos/1268855/pexels-photo-1268855.jpeg?auto=compress&cs=tinysrgb&dpr=2&h=650&w=940",
        "large": "https://images.pexels.com/photos/1268855/pexels-photo-1268855.jpeg?auto=compress&cs=tinysrgb&h=650&w=940",
        "medium": "https://images.pexels.com/photos/1268855/pexels-photo-1268855.jpeg?auto=compress&cs=tinysrgb&h=350",
        "small": "https://images.pexels.com/photos/1268855/pexels-photo-1268855.jpeg?auto=compress&cs=tinysrgb&h=130",
        "portrait": "https://images.pexels.com/photos/1268855/pexels-photo-1268855.jpeg?auto=compress&cs=tinysrgb&fit=crop&h=1200&w=800",
        "landscape": "https://images.pexels.com/photos/1268855/pexels-photo-1268855.jpeg?auto=compress&cs=tinysrgb&fit=crop&h=627&w=1200",
        "tiny": "https://images.pexels.com/photos/1268855/pexels-photo-1268855.jpeg?auto=compress&cs=tinysrgb&dpr=1&fit=crop&h=200&w=280"
      },
      "liked": false,
      "alt": "A couple arriving at a luxurious Maldives resort dock with luggage, capturing a tropical vacation vibe."
    },
    {
      "id": 1287441,
      "width": 4856,
      "height": 3640,
      "url": "https://www.pexels.com/photo/man-and-woman-standing-on-deck-1287441/",
      "photographer": "Asad Photo Maldives",
      "photographer_url": "https://www.pexels.com/@asadphoto",
      "photographer_id": 45786,
      "avg_color": "#78A3B2",
      "src": {
        "original": "https://images.pexels.com/photos/1287441/pexels-photo-1287441.jpeg",
        "large2x": "https://images.pexels.com/photos/1287441/pexels-photo-1287441.jpeg?auto=compress&cs=tinysrgb&dpr=2&h=650&w=940",
        "large": "https://images.pexels.com/photos/1287441/pexels-photo-1287441.jpeg?auto=compress&cs=tinysrgb&h=650&w=940",
        "medium": "https://images.pexels.com/photos/1287441/pexels-photo-1287441.jpeg?auto=compress&cs=tinysrgb&h=350",
        "small": "https://images.pexels.com/photos/1287441/pexels-photo-1287441.jpeg?auto=compress&cs=tinysrgb&h=130",
        "portrait": "https://images.pexels.com/photos/1287441/pexels-photo-1287441.jpeg?auto=compress&cs=tinysrgb&fit=crop&h=1200&w=800",
        "landscape": "https://images.pexels.com/photos/1287441/pexels-photo-1287441.jpeg?auto=compress&cs=tinysrgb&fit=crop&h=627&w=1200",
        "tiny": "https://images.pexels.com/photos/1287441/pexels-photo-1287441.jpeg?auto=compress&cs=tinysrgb&dpr=1&fit=crop&h=200&w=280"
      },
      "liked": false,
      "alt": "A scenic view of overwater bungalows and a couple enjoying a tropical paradise in the Maldives."
    },
    {
      "id": 358358,
      "width": 5168,
      "height": 3445,
      "url": "https://www.pexels.com/photo/canopy-near-seashore-358358/",
      "photographer": "Pixabay",
      "photographer_url": "https://www.pexels.com/@pixabay",
      "photographer_id": 2659,
      "avg_color": "#6D9DBE",
      "src": {
        "original": "https://images.pexels.com/photos/358358/pexels-photo-358358.jpeg",
        "large2x": "https://images.pexels.com/photos/358358/pexels-photo-358358.jpeg?auto=compress&cs=tinysrgb&dpr=2&h=650&w=940",
        "large": "https://images.pexels.com/photos/358358/pexels-photo-358358.jpeg?auto=compress&cs=tinysrgb&h=650&w=940",
        "medium": "https://images.pexels.com/photos/358358/pexels-photo-358358.jpeg?auto=compress&cs=tinysrgb&h=350",
        "small": "https://images.pexels.com/photos/358358/pexels-photo-358358.jpeg?auto=compress&cs=tinysrgb&h=130",
        "portrait": "https://images.pexels.com/photos/358358/pexels-photo-358358.jpeg?auto=compress&cs=tinysrgb&fit=crop&h=1200&w=800",
        "landscape": "https://images.pexels.com/photos/358358/pexels-photo-358358.jpeg?auto=compress&cs=tinysrgb&fit=crop&h=627&w=1200",
        "tiny": "https://images.pexels.com/photos/358358/pexels-photo-358358.jpeg?auto=compress&cs=tinysrgb&dpr=1&fit=crop&h=200&w=280"
      },
      "liked": false,
      "alt": "Idyllic beach scene with a parasol, turquoise water, and palm tree, perfect for relaxation."
    }
  ],
  "total_results": 1664,
  "next_page": "https://api.pexels.com/v1/search?page=2&per_page=15&query=Maldives"
}
